Bootstrapping | Data Analysis: Confidence Intervals and Model Parameter Selection
…
            Data Analysis: Confidence Intervals and Model Parameter Selection

Bootstrapping

The moderndive package contains a sample of 40 pennies collected and minted in the United States. Let's explore this sample data first:

orig_pennies_sample

# A tibble: 40 x 2
    year age_in_2011
   <dbl>       <dbl>
 1  2005           6
 2  1981          30
 3  1977          34
 4  1992          19
 5  2005           6
 6  2006           5
 7  2000          11
 8  1992          19
 9  1988          23
10  1996          15
# ... with 30 more rows
# i Use `print(n = ...)` to see more rows
…
We've denoted this sample mean as \(\bar{x}\), which is the standard symbol for denoting the mean of a sample. Our point estimate is, thus, \(\bar{x} = 25.1\). Note that this is just one sample providing just one sample mean to estimate the population mean. To construct a confidence interval (and to do any sort of statistical inference for that matter) we need to know about the sampling distribution of this sample mean, i.e. how would its values vary if many samples of the same size were drawn from the same population.

The process of bootstrapping allows us to use a single sample to generate many different samples that will act as our way of approximating a sampling distribution using a created bootstrap distribution instead. We will "pull ourselves up by our bootstraps" (as the saying goes in English, see here) using a single sample (orig_pennies_sample) to get an idea of the sampling distribution of the sample mean.

The Bootstrapping Process

Bootstrapping uses a process of sampling with replacement from our original sample to create new bootstrap samples of the same size as our original sample. We can use the rep_sample_n() function in the infer package to explore what one such bootstrap sample would look like. Remember that we are randomly sampling from the original sample here with replacement and that we always use the same sample size for the bootstrap samples as the size of the original sample (orig_pennies_sample).

bootstrap_sample1 <- orig_pennies_sample %>% 
  rep_sample_n(size = 40, replace = TRUE, reps = 1)
bootstrap_sample1

# A tibble: 40 x 3
# Groups:   replicate [1]
   replicate  year age_in_2011
       <int> <dbl>       <dbl>
 1         1  1991          20
 2         1  2005           6
 3         1  1964          47
 4         1  1983          28
 5         1  2000          11
 6         1  1983          28
 7         1  1979          32
 8         1  2006           5
 9         1  1970          41
10         1  1964          47
# ... with 30 more rows
# i Use `print(n = ...)` to see more rows
…
