Comparing two proportions | Data Analysis: Confidence Intervals and Model Parameter Selection
…
6
Population regression slope
\(\beta_1\)
Sample regression slope
\(\widehat{\beta}_1\) or \(b_1\)

In the previous sections we have considered Scenario 2 in Table 1 (reproduced here), i.e. constructing a confidence interval for a single population mean. Often, however, interest lies in comparing two populations, e.g. by constructing a confidence interval for the difference in the population means, as in Scenario 4. But it may be that the characteristic of interest is a population proportion (rather than a population mean) which is reflected in Scenarios 1 and 3. In this section we will focus on Scenario 3, i.e. constructing a confidence interval for the difference in two population proportions.

Let's start with an example. If you see someone else yawn, are you more likely to yawn? In an episode of the TV show Mythbusters, they tested the myth that yawning is contagious.

Fifty adults who thought they were being considered for an appearance on the show were interviewed by a show recruiter ("confederate") who either yawned or did not. Participants then sat by themselves in a large van and were asked to wait. While in the van, the Mythbusters watched via hidden camera to see if the unaware participants yawned. The data frame containing the results is available at mythbusters_yawn in the moderndive package. Let's check it out.

mythbusters_yawn

# A tibble: 50 x 3
    subj group   yawn 
   <int> <chr>   <chr>
 1     1 seed    yes  
 2     2 control yes  
 3     3 seed    no   
 4     4 seed    yes  
 5     5 seed    no   
 6     6 control no   
 7     7 seed    yes  
 8     8 control no   
 9     9 control no   
10    10 seed    no   
# ... with 40 more rows
# i Use `print(n = ...)` to see more rows
…
We are examining the relationship between yawning and whether or not the participant saw someone yawn (seed) or not (control).

mythbusters_yawn %>% 
  specify(formula = yawn ~ group)

Error: A level of the response variable `yawn` needs to be specified for the `success` argument in `specify()`.

Note that the success argument must be specified in situations such as this where the response variable has only two levels.

mythbusters_yawn %>% 
  specify(formula = yawn ~ group, success = "yes")

Response: yawn (factor)
Explanatory: group (factor)
# A tibble: 50 x 2
   yawn  group  
   <fct> <fct>  
 1 yes   seed   
 2 yes   control
 3 no    seed   
 4 yes   seed   
 5 no    seed   
 6 no    control
 7 yes   seed   
 8 no    control
 9 no    control
10 no    seed   
# ... with 40 more rows
# i Use `print(n = ...)` to see more rows
…
We can see that in this bootstrap sample generated from the first six rows of mythbusters_yawn, we have some rows repeated. The same is true when we perform the generate() step in infer as done below.

bootstrap_distribution <- mythbusters_yawn %>% 
  specify(formula = yawn ~ group, success = "yes") %>% 
  generate(reps = 1000) %>% 
  calculate(stat = "diff in props", order = c("seed", "control"))

Response: yawn (factor)
Explanatory: group (factor)
# A tibble: 1,000 x 2
   replicate    stat
       <int>   <dbl>
 1         1  0.110 
 2         2 -0.143 
 3         3 -0.0167
 4         4  0.280 
 5         5  0.128 
 6         6 -0.0903
 7         7  0.144 
 8         8 -0.0381
 9         9  0.0286
10        10 -0.225 
# ... with 990 more rows
# i Use `print(n = ...)` to see more rows
…
