The infer package for statistical inference | Data Analysis: Confidence Intervals and Model Parameter Selection
…
After specify()ing the variables we'd like in our inferential analysis, we next feed that into the generate() verb. The generate() verb's main argument is reps, which is used to give how many different repetitions one would like to perform. Another argument here is type, which is automatically determined by the kinds of variables passed into specify(). We can also be explicit and set this type to be type = "bootstrap". Make sure to check out ?generate to see the options here and use the ? operator to better understand other verbs as well.

Let's generate() 1000 bootstrap samples:

thousand_bootstrap_samples <- orig_pennies_sample %>% 
  specify(response = age_in_2011) %>% 
  generate(reps = 1000)

We can use the dplyr count() function to help us understand what the thousand_bootstrap_samples data frame looks like:

thousand_bootstrap_samples %>% count(replicate)

# A tibble: 1,000 x 2
# Groups:   replicate [1,000]
   replicate     n
       <int> <int>
 1         1    40
 2         2    40
 3         3    40
 4         4    40
 5         5    40
 6         6    40
 7         7    40
 8         8    40
 9         9    40
10        10    40
# ... with 990 more rows
# i Use `print(n = ...)` to see more rows
…
After generate()ing many different samples, we next want to condense those samples down into a single statistic for each replicated sample. As seen in the diagram, the calculate() function is helpful here.

As we did at the beginning of this chapter, we now want to calculate the mean age_in_2011 for each bootstrap sample. To do so, we use the stat argument and set it to "mean" below. The stat argument has a variety of different options here and we will see further examples of this throughout the remaining chapters.

bootstrap_distribution <- orig_pennies_sample %>% 
  specify(response = age_in_2011) %>% 
  generate(reps = 1000) %>% 
  calculate(stat = "mean")
bootstrap_distribution

Response: age_in_2011 (numeric)
# A tibble: 1,000 x 2
   replicate  stat
       <int> <dbl>
 1         1  24.6
 2         2  25.1
 3         3  29.8
 4         4  24.2
 5         5  26.0
 6         6  26.5
 7         7  26.8
 8         8  29.2
 9         9  21.8
10        10  23.8
# ... with 990 more rows
# i Use `print(n = ...)` to see more rows
…
